﻿  iocp_server.cpp
  LList.cpp
  코드를 생성하고 있습니다.
  Previous IPDB not found, fall back to full compilation.
  All 363 functions were compiled because no usable IPDB/IOBJ from previous compilation was found.
  코드를 생성했습니다.
  2020_IOCP_SERVER.vcxproj -> C:\Users\skspa\Desktop\게임서버프로그래밍\2020게임서버\과제\과제6\2020_IOCP_SERVER\x64\Release\2020_IOCP_SERVER.exe
