^C:\USERS\SKSPA\DESKTOP\과제5\05.STRESSTEST + 시야처리\2020_CLIENT\2020_CLIENT\CLIENT.CPP
C:\USERS\SKSPA\DESKTOP\과제5\05.STRESSTEST + 시야처리\2020_CLIENT\2020_CLIENT\RELEASE\VC142.PDB
C:\USERS\SKSPA\DESKTOP\과제5\05.STRESSTEST + 시야처리\2020_CLIENT\2020_CLIENT\RELEASE\CLIENT.OBJ
