^C:\USERS\SKSPA\DESKTOP\과제5\05.STRESSTEST + 시야처리\2020_CLIENT\2020_CLIENT\RELEASE\CLIENT.OBJ
C:\USERS\SKSPA\DESKTOP\과제5\05.STRESSTEST + 시야처리\2020_CLIENT\RELEASE\2020_CLIENT.EXE
C:\USERS\SKSPA\DESKTOP\과제5\05.STRESSTEST + 시야처리\2020_CLIENT\RELEASE\2020_CLIENT.PDB
