^C:\USERS\LEEHYUN\DESKTOP\서버프로그래밍\2020게임서버\실습\NPC\2020_CLIENT\2020_CLIENT\RELEASE\CLIENT.OBJ
C:\USERS\LEEHYUN\DESKTOP\서버프로그래밍\2020게임서버\실습\NPC\2020_CLIENT\RELEASE\2020_CLIENT.EXE
C:\USERS\LEEHYUN\DESKTOP\서버프로그래밍\2020게임서버\실습\NPC\2020_CLIENT\RELEASE\2020_CLIENT.PDB
