^C:\USERS\LEEHYUN\DESKTOP\서버프로그래밍\2020게임서버\실습\IOCP_SERVERCLIENT\2020_CLIENT\2020_CLIENT\DEBUG\CLIENT.OBJ
C:\USERS\LEEHYUN\DESKTOP\서버프로그래밍\2020게임서버\실습\IOCP_SERVERCLIENT\2020_CLIENT\DEBUG\2020_CLIENT.EXE
C:\USERS\LEEHYUN\DESKTOP\서버프로그래밍\2020게임서버\실습\IOCP_SERVERCLIENT\2020_CLIENT\DEBUG\2020_CLIENT.ILK
C:\USERS\LEEHYUN\DESKTOP\서버프로그래밍\2020게임서버\실습\IOCP_SERVERCLIENT\2020_CLIENT\DEBUG\2020_CLIENT.PDB
